…
# Just grab the three columns that seem to change the least frequently.  Sheesh!
State_Pop <- State_Pop %>%
  select(3:5) %>%
  magrittr::set_colnames( c('State', 'Population2020','Population2010') )

# To view this table, we could use View() or print out just the first few
# rows and columns. Converting it to a tibble makes the printing turn out nice.
State_Pop %>% as_tibble() 
```

```
## # A tibble: 60 x 3
##    State          Population2020 Population2010
##    <chr>          <chr>          <chr>         
##  1 California     39,512,223     37,253,956    
##  2 Texas          28,995,881     25,145,561    
##  3 Florida        21,477,737     18,801,310    
##  4 New York       19,453,561     19,378,102    
##  5 Pennsylvania   12,801,989     12,702,379    
##  6 Illinois       12,671,821     12,830,632    
##  7 Ohio           11,689,100     11,536,504    
##  8 Georgia        10,617,423     9,687,653     
##  9 North Carolina 10,488,084     9,535,483     
## 10 Michigan       9,986,857      9,883,640     
## # … with 50 more rows
```
…
```r
CensusFactorLevels('pep/charagegroups', 2018, 'AGEGROUP') 
```

```
## # A tibble: 32 x 2
##    AGEGROUP AGEGROUP_DESC    
##    <chr>    <chr>            
##  1 31       Median age       
##  2 30       15 to 44 years   
##  3 29       18 years and over
##  4 28       16 years and over
##  5 27       85 years and over
##  6 26       65 years and over
##  7 25       45 to 64 years   
##  8 24       25 to 44 years   
##  9 23       18 to 24 years   
## 10 22       18 to 64 years   
## # … with 22 more rows
```
…
# Now for some cleaning
US_State_Health_Insurance %>%
  tidyr::separate(label, c('Estimate','Total','Gender','Age','Insurance'), sep ='!!') %>%
  tidyr::drop_na() %>%
  select(NAME, Gender, Age, Insurance, estimate, moe)
```

```
## Warning: Expected 5 pieces. Missing pieces filled with `NA` in 1092 rows [1, 2,
## 3, 6, 9, 12, 15, 18, 21, 24, 27, 30, 31, 34, 37, 40, 43, 46, 49, 52, ...].
```

```
## # A tibble: 1,872 x 6
##    NAME    Gender Age            Insurance            estimate   moe
##    <chr>   <chr>  <chr>          <chr>                   <dbl> <dbl>
##  1 Alabama Male   Under 6 years  With public coverage    88350  1955
##  2 Alabama Male   Under 6 years  No public coverage      89308  1894
##  3 Alabama Male   6 to 18 years  With public coverage   173031  2754
##  4 Alabama Male   6 to 18 years  No public coverage     241916  3076
##  5 Alabama Male   19 to 25 years With public coverage    20568  1165
##  6 Alabama Male   19 to 25 years No public coverage     209313  2169
##  7 Alabama Male   26 to 34 years With public coverage    30831  1350
##  8 Alabama Male   26 to 34 years No public coverage     229595  2077
##  9 Alabama Male   35 to 44 years With public coverage    32959  1429
## 10 Alabama Male   35 to 44 years No public coverage     244980  1613
## # … with 1,862 more rows
```
…
