Chapter 17 API Data Queries | STA 444/5 - Introductory Data Science using R
…
CensusFactorLevels('pep/charagegroups', 2018, 'AGEGROUP') 

## # A tibble: 32 x 2
##    AGEGROUP AGEGROUP_DESC    
##    <chr>    <chr>            
##  1 31       Median age       
##  2 30       15 to 44 years   
##  3 29       18 years and over
##  4 28       16 years and over
##  5 27       85 years and over
##  6 26       65 years and over
##  7 25       45 to 64 years   
##  8 24       25 to 44 years   
##  9 23       18 to 24 years   
## 10 22       18 to 64 years   
## # â€¦ with 22 more rows
…
# Join the data with the readable variable names
US_State_Health_Insurance <- US_State_Health_Insurance %>%
  left_join( ACS_Variables, by=c('variable' = 'name') )

# Now for some cleaning
US_State_Health_Insurance %>%
  tidyr::separate(label, c('Estimate','Total','Gender','Age','Insurance'), sep ='!!') %>%
  tidyr::drop_na() %>%
  select(NAME, Gender, Age, Insurance, estimate, moe)

## Warning: Expected 5 pieces. Missing pieces filled with `NA` in 1092 rows [1, 2,
## 3, 6, 9, 12, 15, 18, 21, 24, 27, 30, 31, 34, 37, 40, 43, 46, 49, 52, ...].

## # A tibble: 1,872 x 6
##    NAME    Gender Age            Insurance            estimate   moe
##    <chr>   <chr>  <chr>          <chr>                   <dbl> <dbl>
##  1 Alabama Male   Under 6 years  With public coverage    88350  1955
##  2 Alabama Male   Under 6 years  No public coverage      89308  1894
##  3 Alabama Male   6 to 18 years  With public coverage   173031  2754
##  4 Alabama Male   6 to 18 years  No public coverage     241916  3076
##  5 Alabama Male   19 to 25 years With public coverage    20568  1165
##  6 Alabama Male   19 to 25 years No public coverage     209313  2169
##  7 Alabama Male   26 to 34 years With public coverage    30831  1350
##  8 Alabama Male   26 to 34 years No public coverage     229595  2077
##  9 Alabama Male   35 to 44 years With public coverage    32959  1429
## 10 Alabama Male   35 to 44 years No public coverage     244980  1613
## # â€¦ with 1,862 more rows
…
