Chapter 17 Data Scraping | STA 444/5 - Introductory Data Science using R
…
With five tables on the page, I need to go through each table individually and decide if it is the one that I want. To do this, we’ll take each table and convert it into a data.frame and view it to see what information it contains.

State_Pop <- page %>%
  html_nodes('table') %>% 
  .[[1]] %>%        # Grab the first table and 
  html_table()      # convert it from HTML into a data.frame 

# To view this table, we could use View() or print out just the first few
# rows and columns. Converting it to a tibble makes the printing turn out nice.
State_Pop %>% as_tibble()  

## # A tibble: 60 x 12
##    `Current Rank` `Rank in states… State `Census populat… `Census populat…
##    <chr>          <chr>            <chr> <chr>            <chr>           
##  1 1              1                Cali… 39,512,223       37,254,523      
##  2 2              2                Texas 28,995,881       25,145,561      
##  3 3              4                Flor… 21,477,737       18,801,310      
##  4 4              3                New … 19,453,561       19,378,102      
##  5 5              6                Penn… 12,801,989       12,702,379      
##  6 6              5                Illi… 12,671,821       12,830,632      
##  7 7              7                Ohio  11,689,100       11,536,504      
##  8 8              9                Geor… 10,617,423       9,687,653       
##  9 9              10               Nort… 10,488,084       9,535,483       
## 10 10             8                Mich… 9,986,857        9,883,640       
## # … with 50 more rows, and 7 more variables: `Percent change,
## #   2010–2019[note 1]` <chr>, `Absolute change, 2010-2019` <chr>, `Total
## #   U.S. House of Representatives Seats` <chr>, `Estimated population per
## #   electoral vote, 2019[note 2]` <chr>, `Estimated population per House
## #   seat, 2019` <chr>, `Census population per House seat, 2010` <chr>,
## #   `Percent of the total U.S. population, 2018[note 3]` <chr>
…
