…
```r
State_Pop <- page %>%
  html_nodes('table') %>% 
  .[[1]] %>%        # Grab the first table and 
  html_table()      # convert it from HTML into a data.frame 

# To view this table, we could use View() or print out just the first few
# rows and columns. Converting it to a tibble makes the printing turn out nice.
State_Pop %>% as_tibble()  
```

```
## # A tibble: 60 x 12
##    `Rank in the fi… `Rank in states… Name  `Population est…
##    <chr>            <chr>            <chr> <chr>           
##  1 1                1                Cali… 39,557,045      
##  2 2                2                Texas 28,701,845      
##  3 3                4                Flor… 21,299,325      
##  4 4                3                New … 19,542,209      
##  5 5                6                Penn… 12,807,060      
##  6 6                5                Illi… 12,741,080      
##  7 7                7                Ohio  11,689,442      
##  8 8                9                Geor… 10,519,475      
##  9 9                10               Nort… 10,383,620      
## 10 10               8                Mich… 9,995,915       
## # … with 50 more rows, and 8 more variables: `Census population, April 1,
## #   2010[6]` <chr>, `Percent change, 2010–2018[note 1]` <chr>, `Absolute
## #   change, 2010-2018` <chr>, `Total seats in the U.S. House of
## #   Representatives, 2013–2023` <chr>, `Estimated population per electoral
## #   vote, 2018[note 2]` <chr>, `Estimated population per House seat,
## #   2018` <chr>, `Census population per House seat, 2010` <chr>, `Percent
## #   of the total U.S. population, 2018[note 3]` <chr>
```
…
