…
# To view this table, we could use View() or print out just the first few
# rows and columns. Converting it to a tibble makes the printing turn out nice.
State_Pop %>% as_tibble() 
```

```
## # A tibble: 60 x 12
##    Rank_current Rank_2010 State Population2019 Population2010 Percent_Change
##    <chr>        <chr>     <chr> <chr>          <chr>          <chr>         
##  1 1            1         Cali… 39,512,223     37,254,523     6.1%          
##  2 2            2         Texas 28,995,881     25,145,561     15.3%         
##  3 3            4         Flor… 21,477,737     18,801,310     14.2%         
##  4 4            3         New … 19,453,561     19,378,102     0.4%          
##  5 5            6         Penn… 12,801,989     12,702,379     0.8%          
##  6 6            5         Illi… 12,671,821     12,830,632     -1.2%         
##  7 7            7         Ohio  11,689,100     11,536,504     1.3%          
##  8 8            9         Geor… 10,617,423     9,687,653      9.6%          
##  9 9            10        Nort… 10,488,084     9,535,483      10.0%         
## 10 10           8         Mich… 9,986,857      9,883,640      1.0%          
## # … with 50 more rows, and 6 more variables: Absolute_Change <chr>,
## #   House_Seats <chr>, Population_Per_Electoral_Vote <chr>,
## #   Population_Per_House_Seat <chr>, Population_Per_House_Seat_2010 <chr>,
## #   Percent_US_Population <chr>
```
…
