Chapter 16 Data Scraping | STA 444/5 - Introductory Data Science using R
…
# Just grab the three columns that seem to change the least frequently.  Sheesh!
State_Pop <- State_Pop %>%
  select(3:5) %>%
  magrittr::set_colnames( c('State', 'Population2020','Population2010') )

# To view this table, we could use View() or print out just the first few
# rows and columns. Converting it to a tibble makes the printing turn out nice.
State_Pop %>% as_tibble() 

## # A tibble: 60 x 3
##    State          Population2020 Population2010
##    <chr>          <chr>          <chr>         
##  1 California     39,512,223     37,253,956    
##  2 Texas          28,995,881     25,145,561    
##  3 Florida        21,477,737     18,801,310    
##  4 New York       19,453,561     19,378,102    
##  5 Pennsylvania   12,801,989     12,702,379    
##  6 Illinois       12,671,821     12,830,632    
##  7 Ohio           11,689,100     11,536,504    
##  8 Georgia        10,617,423     9,687,653     
##  9 North Carolina 10,488,084     9,535,483     
## 10 Michigan       9,986,857      9,883,640     
## # … with 50 more rows
…
